G04 #@! TF.GenerationSoftware,KiCad,Pcbnew,5.1.6+dfsg1-1~bpo10+1*
G04 #@! TF.CreationDate,2020-10-16T21:04:19+02:00*
G04 #@! TF.ProjectId,PCB,5043422e-6b69-4636-9164-5f7063625858,rev?*
G04 #@! TF.SameCoordinates,Original*
G04 #@! TF.FileFunction,Profile,NP*
%FSLAX46Y46*%
G04 Gerber Fmt 4.6, Leading zero omitted, Abs format (unit mm)*
G04 Created by KiCad (PCBNEW 5.1.6+dfsg1-1~bpo10+1) date 2020-10-16 21:04:19*
%MOMM*%
%LPD*%
G01*
G04 APERTURE LIST*
G04 #@! TA.AperFunction,Profile*
%ADD10C,0.150000*%
G04 #@! TD*
G04 APERTURE END LIST*
D10*
X116000000Y-46600000D02*
X116500000Y-47100000D01*
X109500000Y-47100000D02*
X110000000Y-46600000D01*
X98000000Y-46600000D02*
X98500000Y-47100000D01*
X91500000Y-47100000D02*
X92000000Y-46600000D01*
X80000000Y-46600000D02*
X80500000Y-47100000D01*
X73500000Y-47100000D02*
X74000000Y-46600000D01*
X62000000Y-46600000D02*
X62500000Y-47100000D01*
X56000000Y-46600000D02*
X55500000Y-47100000D01*
X44000000Y-46600000D02*
X44500000Y-47100000D01*
X38000000Y-46600000D02*
X37500000Y-47100000D01*
X38500000Y-33000000D02*
X38000000Y-33500000D01*
X43500000Y-33000000D02*
X44000000Y-33500000D01*
X56500000Y-33000000D02*
X56000000Y-33500000D01*
X61500000Y-33000000D02*
X62000000Y-33500000D01*
X74500000Y-33000000D02*
X74000000Y-33500000D01*
X79500000Y-33000000D02*
X80000000Y-33500000D01*
X92500000Y-33000000D02*
X92000000Y-33500000D01*
X97500000Y-33000000D02*
X98000000Y-33500000D01*
X110500000Y-33000000D02*
X110000000Y-33500000D01*
X115500000Y-33000000D02*
X116000000Y-33500000D01*
X128500000Y-33000000D02*
X128000000Y-33500000D01*
X133500000Y-33000000D02*
X134000000Y-33500000D01*
X127500000Y-47100000D02*
X128000000Y-46600000D01*
X134000000Y-46600000D02*
X134500000Y-47100000D01*
X146000000Y-33500000D02*
X146500000Y-33000000D01*
X151500000Y-33000000D02*
X152000000Y-33500000D01*
X146000000Y-46600000D02*
X145500000Y-47100000D01*
X152000000Y-46600000D02*
X152500000Y-47100000D01*
X169500000Y-33000000D02*
X170000000Y-33500000D01*
X164000000Y-33500000D02*
X164500000Y-33000000D01*
X164000000Y-46600000D02*
X163500000Y-47100000D01*
X170000000Y-46600000D02*
X170500000Y-47100000D01*
X102800000Y-86300000D02*
X175800000Y-86300000D01*
X102800000Y-102100000D02*
X102800000Y-86300000D01*
X80000000Y-33500000D02*
X80000000Y-46600000D01*
X74000000Y-46600000D02*
X74000000Y-33500000D01*
X80500000Y-47100000D02*
X86000000Y-47100000D01*
X62000000Y-33500000D02*
X62000000Y-46600000D01*
X37500000Y-47100000D02*
X31800000Y-47100000D01*
X44500000Y-47100000D02*
X50000000Y-47100000D01*
X44000000Y-33500000D02*
X44000000Y-46600000D01*
X38000000Y-46600000D02*
X38000000Y-33500000D01*
X38500000Y-33000000D02*
X43500000Y-33000000D01*
X56000000Y-46600000D02*
X56000000Y-33500000D01*
X73500000Y-47100000D02*
X68000000Y-47100000D01*
X55500000Y-47100000D02*
X50000000Y-47100000D01*
X56500000Y-33000000D02*
X61500000Y-33000000D01*
X91500000Y-47100000D02*
X86000000Y-47100000D01*
X98500000Y-47100000D02*
X104000000Y-47100000D01*
X92500000Y-33000000D02*
X97500000Y-33000000D01*
X74500000Y-33000000D02*
X79500000Y-33000000D01*
X98000000Y-33500000D02*
X98000000Y-46600000D01*
X62500000Y-47100000D02*
X68000000Y-47100000D01*
X92000000Y-46600000D02*
X92000000Y-33500000D01*
X116000000Y-33500000D02*
X116000000Y-46600000D01*
X110000000Y-46600000D02*
X110000000Y-33500000D01*
X116500000Y-47100000D02*
X122000000Y-47100000D01*
X109500000Y-47100000D02*
X104000000Y-47100000D01*
X127500000Y-47100000D02*
X122000000Y-47100000D01*
X134500000Y-47100000D02*
X140000000Y-47100000D01*
X128500000Y-33000000D02*
X133500000Y-33000000D01*
X110500000Y-33000000D02*
X115500000Y-33000000D01*
X134000000Y-33500000D02*
X134000000Y-46600000D01*
X128000000Y-46600000D02*
X128000000Y-33500000D01*
X145500000Y-47100000D02*
X140000000Y-47100000D01*
X152500000Y-47100000D02*
X158000000Y-47100000D01*
X146500000Y-33000000D02*
X151500000Y-33000000D01*
X152000000Y-33500000D02*
X152000000Y-46600000D01*
X146000000Y-46600000D02*
X146000000Y-33500000D01*
X164000000Y-46600000D02*
X164000000Y-33500000D01*
X175800000Y-47100000D02*
X175800000Y-86300000D01*
X170000000Y-33500000D02*
X170000000Y-46600000D01*
X164500000Y-33000000D02*
X169500000Y-33000000D01*
X170500000Y-47100000D02*
X175800000Y-47100000D01*
X163500000Y-47100000D02*
X158000000Y-47100000D01*
X102800000Y-102100000D02*
X31800000Y-102100000D01*
X31800000Y-47100000D02*
X31800000Y-102100000D01*
M02*
